<svg xmlns="http://www.w3.org/2000/svg" width="16" height="14" viewBox="0 0 16 14">
    <path fill="#828487" fill-rule="evenodd" d="M14.315 2.793c.456-.365.73-.822.913-1.37 0-.09-.091-.274-.274-.182-.549.274-1.096.456-1.644.639h-.091c-.091 0-.184 0-.274-.091-.548-.548-1.37-.822-2.192-.822-.365 0-.73.091-1.095.182-1.096.274-1.918 1.188-2.192 2.283-.091.366-.183.822-.091 1.188v.09h-.092C4.91 4.529 2.81 3.342 1.256 1.516c-.09-.092-.182-.092-.273 0C.709 1.97.526 2.61.526 3.158c0 .914.365 1.735 1.004 2.375-.274 0-.456-.183-.73-.274-.091 0-.274.091-.274.182-.091 1.279.73 2.466 1.918 3.015h-.092c-.182 0-.365-.092-.548-.092-.09-.092-.182.092-.182.182.365 1.187 1.37 2.1 2.648 2.283-1.005.64-2.192 1.005-3.47 1.005H.435c-.183 0-.274.09-.274.182 0 .183 0 .274.091.274 1.461.732 3.013 1.188 4.657 1.188 1.37 0 2.74-.275 3.927-.823 1.096-.456 2.1-1.187 2.922-2.1.73-.822 1.277-1.826 1.734-2.922.457-1.004.64-2.1.64-3.196 0-.183.091-.365.183-.457.547-.456 1.003-.913 1.278-1.278.092-.183 0-.365-.182-.274-.366.183-.73.274-1.096.365z"/>
</svg>
