<svg xmlns="http://www.w3.org/2000/svg" width="22" height="9" viewBox="0 0 22 9">
    <path fill="#06233D" fill-rule="evenodd" d="M103.875 20L109.5 24.125 103.938 29 103.875 25 88 25 88 23.625 103.875 23.625z" transform="translate(-88 -20)"/>
</svg>
